bitware/src/dump.vcd
$date
	Thu Feb 13 20:15:37 2025
$end
$version
	Icarus Verilog
$end
$timescale
	1ns
$end
$scope module async_fifo_TB $end
$var wire 1 ! full $end
$var wire 1 " empty $end
$var wire 16 # data_out [15:0] $end
$var parameter 32 $ DATA_WIDTH $end
$var reg 16 % data_in [15:0] $end
$var reg 1 & r_en $end
$var reg 1 ' rclk $end
$var reg 1 ( rrst_n $end
$var reg 1 ) w_en $end
$var reg 1 * wclk $end
$var reg 16 + wdata [15:0] $end
$var reg 1 , wrst_n $end
$scope module as_fifo $end
$var wire 16 - data_in [15:0] $end
$var wire 1 & r_en $end
$var wire 1 ' rclk $end
$var wire 1 ( rrst_n $end
$var wire 1 ) w_en $end
$var wire 1 * wclk $end
$var wire 1 , wrst_n $end
$var wire 6 . g_wptr_sync [5:0] $end
$var wire 6 / g_wptr [5:0] $end
$var wire 6 0 g_rptr_sync [5:0] $end
$var wire 6 1 g_rptr [5:0] $end
$var wire 1 ! full $end
$var wire 1 " empty $end
$var wire 16 2 data_out [15:0] $end
$var wire 6 3 b_wptr [5:0] $end
$var wire 6 4 b_rptr [5:0] $end
$var parameter 32 5 DATA_WIDTH $end
$var parameter 32 6 DEPTH $end
$var parameter 32 7 PTR_WIDTH $end
$scope module fifomemory $end
$var wire 16 8 data_in [15:0] $end
$var wire 1 & r_en $end
$var wire 1 ' rclk $end
$var wire 1 ) w_en $end
$var wire 1 * wclk $end
$var wire 1 ! full $end
$var wire 1 " empty $end
$var wire 6 9 b_wptr [5:0] $end
$var wire 6 : b_rptr [5:0] $end
$var parameter 32 ; DATA_WIDTH $end
$var parameter 32 < DEPTH $end
$var parameter 32 = PTR_WIDTH $end
$var reg 16 > data_out [15:0] $end
$upscope $end
$scope module rptr_h $end
$var wire 1 & r_en $end
$var wire 1 ' rclk $end
$var wire 1 ( rrst_n $end
$var wire 6 ? g_wptr_sync [5:0] $end
$var parameter 32 @ PTR_WIDTH $end
$var reg 6 A b_rptr [5:0] $end
$var reg 6 B b_rptr_next [5:0] $end
$var reg 1 " empty $end
$var reg 6 C g_rptr [5:0] $end
$var reg 6 D g_rptr_next [5:0] $end
$var reg 1 E rempty $end
$upscope $end
$scope module sync_rptr $end
$var wire 1 * clk $end
$var wire 6 F d_in [5:0] $end
$var wire 1 , rst_n $end
$var parameter 32 G WIDTH $end
$var reg 6 H d_out [5:0] $end
$var reg 6 I q1 [5:0] $end
$upscope $end
$scope module sync_wptr $end
$var wire 1 ' clk $end
$var wire 1 ( rst_n $end
$var wire 6 J d_in [5:0] $end
$var parameter 32 K WIDTH $end
$var reg 6 L d_out [5:0] $end
$var reg 6 M q1 [5:0] $end
$upscope $end
$scope module wptr_h $end
$var wire 6 N g_rptr_sync [5:0] $end
$var wire 1 ) w_en $end
$var wire 1 * wclk $end
$var wire 1 , wrst_n $end
$var parameter 32 O PTR_WIDTH $end
$var reg 6 P b_wptr [5:0] $end
$var reg 6 Q b_wptr_next [5:0] $end
$var reg 1 ! full $end
$var reg 6 R g_wptr [5:0] $end
$var reg 6 S g_wptr_next [5:0] $end
$var reg 1 T wfull $end
$upscope $end
$upscope $end
$scope begin $ivl_for_loop0 $end
$var integer 32 U i [31:0] $end
$upscope $end
$scope begin $ivl_for_loop1 $end
$var integer 32 V i [31:0] $end
$upscope $end
$upscope $end
$enddefinitions $end
$comment Show the parameter values. $end
$dumpall
b101 O
b101 K
b101 G
b101 @
b101 =
b100000 <
b10000 ;
b101 7
b100000 6
b10000 5
b10000 $
$end
#0
$dumpvars
b0 V
b0 U
xT
bx S
b0 R
bx Q
b0 P
bx N
bx M
bx L
b0 J
bx I
bx H
b0 F
xE
bx D
b0 C
bx B
b0 A
bx ?
bx >
b0 :
b0 9
b0 8
b0 4
b0 3
bx 2
b0 1
bx 0
b0 /
bx .
b0 -
0,
bx +
0*
0)
0(
0'
0&
b0 %
bx #
1"
0!
$end
#10
b0 0
b0 H
b0 N
b0 I
b0 Q
1*
#20
0*
#30
b0 S
b0 .
b0 ?
b0 L
b0 M
b0 B
1*
1'
#40
0*
#50
0T
1*
#60
0*
0'
#70
1*
#80
0*
#90
b0 D
1*
1'
#100
0*
#110
1*
#120
0*
0'
#130
1*
#140
0*
#150
1E
1*
1'
#160
0*
#170
1*
#180
0*
0'
#190
1,
1*
#200
0*
#210
b1 Q
b1 U
b11010100100100 %
b11010100100100 -
b11010100100100 8
1)
1*
1'
#220
0*
#230
b1 3
b1 9
b1 P
b11010100100100 #
b11010100100100 2
b11010100100100 >
b1 S
b10 U
0)
1*
#240
0*
0'
#250
b1 /
b1 J
b1 R
b10 Q
b11 U
b101111010000001 %
b101111010000001 -
b101111010000001 8
1)
1*
#260
0*
#270
b10 3
b10 9
b10 P
b11 S
b100 U
0)
1*
1'
#280
0*
#290
b11 /
b11 J
b11 R
b11 Q
b101 U
b1101011000001001 %
b1101011000001001 -
b1101011000001001 8
1)
1*
#300
0*
0'
#310
b11 3
b11 9
b11 P
b10 S
b110 U
0)
1*
#320
0*
#330
b10 /
b10 J
b10 R
b100 Q
b111 U
b101011001100011 %
b101011001100011 -
b101011001100011 8
1)
1*
1'
#340
0*
#350
b100 3
b100 9
b100 P
b110 S
b1000 U
0)
1*
#360
0*
0'
#370
b110 /
b110 J
b110 R
b101 Q
b1001 U
b111101100001101 %
b111101100001101 -
b111101100001101 8
1)
1*
#380
0*
#390
b101 3
b101 9
b101 P
b111 S
b1010 U
0)
1*
1'
#400
0*
#410
b111 /
b111 J
b111 R
b110 Q
b1011 U
b1001100110001101 %
b1001100110001101 -
b1001100110001101 8
1)
1*
#420
0*
0'
#430
b110 3
b110 9
b110 P
b101 S
b1100 U
0)
1*
#440
0*
#450
b101 /
b101 J
b101 R
b111 Q
b1101 U
b1000010001100101 %
b1000010001100101 -
b1000010001100101 8
1)
1*
1'
#460
0*
#470
b111 3
b111 9
b111 P
b100 S
b1110 U
0)
1*
#480
0*
0'
#490
b100 /
b100 J
b100 R
b1000 Q
b1111 U
b101001000010010 %
b101001000010010 -
b101001000010010 8
1)
1*
#500
0*
#510
b1000 3
b1000 9
b1000 P
b1100 S
b10000 U
0)
1*
1'
#520
0*
#530
b1100 /
b1100 J
b1100 R
b1001 Q
b10001 U
b1110001100000001 %
b1110001100000001 -
b1110001100000001 8
1)
1*
#540
0*
0'
#550
b1001 3
b1001 9
b1001 P
b1101 S
b10010 U
0)
1*
#560
0*
#570
b1101 /
b1101 J
b1101 R
b1010 Q
b10011 U
b1100110100001101 %
b1100110100001101 -
b1100110100001101 8
1)
1*
1'
#580
0*
#590
b1010 3
b1010 9
b1010 P
b1111 S
b10100 U
0)
1*
#600
0*
0'
#610
b1111 /
b1111 J
b1111 R
b1011 Q
b10101 U
b1111000101110110 %
b1111000101110110 -
b1111000101110110 8
1)
1*
#620
0*
#630
b1011 3
b1011 9
b1011 P
b1110 S
b10110 U
0)
1*
1'
#640
0*
#650
b1110 /
b1110 J
b1110 R
b1100 Q
b10111 U
b1100110100111101 %
b1100110100111101 -
b1100110100111101 8
1)
1*
#660
0*
0'
#670
b1100 3
b1100 9
b1100 P
b1010 S
b11000 U
0)
1*
#680
0*
#690
b1010 /
b1010 J
b1010 R
b1101 Q
b11001 U
b101011111101101 %
b101011111101101 -
b101011111101101 8
1)
1*
1'
#700
0*
#710
b1101 3
b1101 9
b1101 P
b1011 S
b11010 U
0)
1*
#720
0*
0'
#730
b1011 /
b1011 J
b1011 R
b1110 Q
b11011 U
b1111011110001100 %
b1111011110001100 -
b1111011110001100 8
1)
1*
#740
0*
#750
b1110 3
b1110 9
b1110 P
b1001 S
b11100 U
0)
1*
1'
#760
0*
#770
b1001 /
b1001 J
b1001 R
b1111 Q
b11101 U
b1110100111111001 %
b1110100111111001 -
b1110100111111001 8
1)
1*
#780
0*
0'
#790
b1111 3
b1111 9
b1111 P
b1000 S
b11110 U
0)
1*
#800
0*
#810
b1000 /
b1000 J
b1000 R
1*
1'
#820
0*
#830
1*
#840
0*
0'
b0 U
#850
b10000 Q
b1 U
b10010011000110 %
b10010011000110 -
b10010011000110 8
1)
1*
#860
0*
#870
b10000 3
b10000 9
b10000 P
b11000 S
b10 U
0)
1*
1'
#880
0*
#890
b11000 /
b11000 J
b11000 R
b10001 Q
b11 U
b1000010011000101 %
b1000010011000101 -
b1000010011000101 8
1)
1*
#900
0*
0'
#910
b10001 3
b10001 9
b10001 P
b11001 S
b100 U
0)
1*
#920
0*
#930
b11001 /
b11001 J
b11001 R
b10010 Q
b101 U
b1101001010101010 %
b1101001010101010 -
b1101001010101010 8
1)
1*
1'
#940
0*
#950
b10010 3
b10010 9
b10010 P
b11011 S
b110 U
0)
1*
#960
0*
0'
#970
b11011 /
b11011 J
b11011 R
b10011 Q
b111 U
b1111011111100101 %
b1111011111100101 -
b1111011111100101 8
1)
1*
#980
0*
#990
b10011 3
b10011 9
b10011 P
b11010 S
b1000 U
0)
1*
1'
#1000
0*
#1010
b11010 /
b11010 J
b11010 R
b10100 Q
b1001 U
b111001001110111 %
b111001001110111 -
b111001001110111 8
1)
1*
#1020
0*
0'
#1030
b10100 3
b10100 9
b10100 P
b11110 S
b1010 U
0)
1*
#1040
0*
#1050
b11110 /
b11110 J
b11110 R
b10101 Q
b1011 U
b1101011000010010 %
b1101011000010010 -
b1101011000010010 8
1)
1*
1'
#1060
0*
#1070
b10101 3
b10101 9
b10101 P
b11111 S
b1100 U
0)
1*
#1080
0*
0'
#1090
b11111 /
b11111 J
b11111 R
b10110 Q
b1101 U
b1101101110001111 %
b1101101110001111 -
b1101101110001111 8
1)
1*
#1100
0*
#1110
b10110 3
b10110 9
b10110 P
b11101 S
b1110 U
0)
1*
1'
#1120
0*
#1130
b11101 /
b11101 J
b11101 R
b10111 Q
b1111 U
b110100111110010 %
b110100111110010 -
b110100111110010 8
1)
1*
#1140
0*
0'
#1150
b10111 3
b10111 9
b10111 P
b11100 S
b10000 U
0)
1*
#1160
0*
#1170
b11100 /
b11100 J
b11100 R
b11000 Q
b10001 U
b1001011011001110 %
b1001011011001110 -
b1001011011001110 8
1)
1(
1*
1'
#1180
0*
#1190
b11000 3
b11000 9
b11000 P
b10100 S
b10010 U
0)
1*
#1200
0*
0'
#1210
b10100 /
b10100 J
b10100 R
b11001 Q
b10011 U
b111101011101000 %
b111101011101000 -
b111101011101000 8
1)
1*
#1220
0*
#1230
b11001 3
b11001 9
b11001 P
b10101 S
b10100 M
b10100 U
0)
b1 V
1*
1'
#1240
0*
#1250
b10101 /
b10101 J
b10101 R
b11010 Q
b10101 U
b100111011000101 %
b100111011000101 -
b100111011000101 8
1)
1*
#1260
0*
0'
#1270
b11010 3
b11010 9
b11010 P
b10111 S
b10110 U
0)
1*
#1280
0*
#1290
b10111 /
b10111 J
b10111 R
b11011 Q
b10100 .
b10100 ?
b10100 L
b10101 M
b10111 U
b100100101011100 %
b100100101011100 -
b100100101011100 8
1)
b10 V
1*
1'
#1300
0*
#1310
b11011 3
b11011 9
b11011 P
b10110 S
b11000 U
0)
1*
#1320
0*
0'
#1330
b10110 /
b10110 J
b10110 R
b11100 Q
b11001 U
b10100010111101 %
b10100010111101 -
b10100010111101 8
1)
1*
#1340
0*
#1350
b11100 3
b11100 9
b11100 P
b10010 S
b10101 .
b10101 ?
b10101 L
b10110 M
0E
b11010 U
0)
b11 V
1*
1'
#1360
0*
#1370
b10010 /
b10010 J
b10010 R
b11101 Q
b11011 U
b101100000101101 %
b101100000101101 -
b101100000101101 8
1)
1*
#1380
0*
0'
#1390
b11101 3
b11101 9
b11101 P
b10011 S
b11100 U
0)
1*
#1400
0*
#1410
b10011 /
b10011 J
b10011 R
b11110 Q
0"
b10110 .
b10110 ?
b10110 L
b10010 M
b11101 U
b10011001100101 %
b10011001100101 -
b10011001100101 8
1)
b100 V
1*
1'
#1420
0*
#1430
b11110 3
b11110 9
b11110 P
b10001 S
b11110 U
0)
1*
#1440
0*
0'
#1450
b10001 /
b10001 J
b10001 R
1*
#1460
0*
#1470
b10010 .
b10010 ?
b10010 L
b10001 M
b1 B
b101 V
b11010100100100 +
1&
1*
1'
#1480
0*
#1490
1*
#1500
0*
0'
#1510
1*
#1520
0*
#1530
b1 4
b1 :
b1 A
b1 D
b10001 .
b10001 ?
b10001 L
b110 V
0&
1*
1'
#1540
0*
#1550
b101111010000001 #
b101111010000001 2
b101111010000001 >
1*
#1560
0*
0'
#1570
1*
#1580
0*
#1590
b1 1
b1 C
b1 F
b10 B
b111 V
b101111010000001 +
1&
1*
1'
#1600
0*
#1610
b1 I
1*
#1620
0*
0'
#1630
b1 0
b1 H
b1 N
1*
#1640
0*
#1650
b10 4
b10 :
b10 A
b11 D
b1000 V
0&
1*
1'
#1660
0*
#1670
b1101011000001001 #
b1101011000001001 2
b1101011000001001 >
1*
#1680
0*
0'
#1690
1*
#1700
0*
#1710
b11 1
b11 C
b11 F
b11 B
b1001 V
b1101011000001001 +
1&
1*
1'
#1720
0*
#1730
b11 I
1*
#1740
0*
0'
#1750
b11 0
b11 H
b11 N
1*
#1760
0*
#1770
b11 4
b11 :
b11 A
b10 D
b1010 V
0&
1*
1'
#1780
0*
#1790
b101011001100011 #
b101011001100011 2
b101011001100011 >
1*
#1800
0*
0'
#1810
1*
#1820
0*
#1830
b10 1
b10 C
b10 F
b100 B
b1011 V
b101011001100011 +
1&
1*
1'
#1840
0*
#1850
b10 I
1*
#1860
0*
0'
#1870
b10 0
b10 H
b10 N
1*
#1880
0*
#1890
b100 4
b100 :
b100 A
b110 D
b1100 V
0&
1*
1'
#1900
0*
#1910
b111101100001101 #
b111101100001101 2
b111101100001101 >
1*
#1920
0*
0'
#1930
1*
#1940
0*
#1950
b110 1
b110 C
b110 F
b101 B
b1101 V
b111101100001101 +
1&
1*
1'
#1960
0*
#1970
b110 I
1*
#1980
0*
0'
#1990
b110 0
b110 H
b110 N
1*
#2000
0*
#2010
b101 4
b101 :
b101 A
b111 D
b1110 V
0&
1*
1'
#2020
0*
#2030
b1001100110001101 #
b1001100110001101 2
b1001100110001101 >
1*
#2040
0*
0'
#2050
1*
#2060
0*
#2070
b111 1
b111 C
b111 F
b110 B
b1111 V
b1001100110001101 +
1&
1*
1'
#2080
0*
#2090
b111 I
1*
#2100
0*
0'
#2110
b111 0
b111 H
b111 N
1*
#2120
0*
#2130
b110 4
b110 :
b110 A
b101 D
b10000 V
0&
1*
1'
#2140
0*
#2150
b1000010001100101 #
b1000010001100101 2
b1000010001100101 >
1*
#2160
0*
0'
#2170
1*
#2180
0*
#2190
b101 1
b101 C
b101 F
b111 B
b10001 V
b1000010001100101 +
1&
1*
1'
#2200
0*
#2210
b101 I
1*
#2220
0*
0'
#2230
b101 0
b101 H
b101 N
1*
#2240
0*
#2250
b111 4
b111 :
b111 A
b100 D
b10010 V
0&
1*
1'
#2260
0*
#2270
b101001000010010 #
b101001000010010 2
b101001000010010 >
1*
#2280
0*
0'
#2290
1*
#2300
0*
#2310
b100 1
b100 C
b100 F
b1000 B
b10011 V
b101001000010010 +
1&
1*
1'
#2320
0*
#2330
b100 I
1*
#2340
0*
0'
#2350
b100 0
b100 H
b100 N
1*
#2360
0*
#2370
b1000 4
b1000 :
b1000 A
b1100 D
b10100 V
0&
1*
1'
#2380
0*
#2390
b1110001100000001 #
b1110001100000001 2
b1110001100000001 >
1*
#2400
0*
0'
#2410
1*
#2420
0*
#2430
b1100 1
b1100 C
b1100 F
b1001 B
b10101 V
b1110001100000001 +
1&
1*
1'
#2440
0*
#2450
b1100 I
1*
#2460
0*
0'
#2470
b1100 0
b1100 H
b1100 N
1*
#2480
0*
#2490
b1001 4
b1001 :
b1001 A
b1101 D
b10110 V
0&
1*
1'
#2500
0*
#2510
b1100110100001101 #
b1100110100001101 2
b1100110100001101 >
1*
#2520
0*
0'
#2530
1*
#2540
0*
#2550
b1101 1
b1101 C
b1101 F
b1010 B
b10111 V
b1100110100001101 +
1&
1*
1'
#2560
0*
#2570
b1101 I
1*
#2580
0*
0'
#2590
b1101 0
b1101 H
b1101 N
1*
#2600
0*
#2610
b1010 4
b1010 :
b1010 A
b1111 D
b11000 V
0&
1*
1'
#2620
0*
#2630
b1111000101110110 #
b1111000101110110 2
b1111000101110110 >
1*
#2640
0*
0'
#2650
1*
#2660
0*
#2670
b1111 1
b1111 C
b1111 F
b1011 B
b11001 V
b1111000101110110 +
1&
1*
1'
#2680
0*
#2690
b1111 I
1*
#2700
0*
0'
#2710
b1111 0
b1111 H
b1111 N
1*
#2720
0*
#2730
b1011 4
b1011 :
b1011 A
b1110 D
b11010 V
0&
1*
1'
#2740
0*
#2750
b1100110100111101 #
b1100110100111101 2
b1100110100111101 >
1*
#2760
0*
0'
#2770
1*
#2780
0*
#2790
b1110 1
b1110 C
b1110 F
b1100 B
b11011 V
b1100110100111101 +
1&
1*
1'
#2800
0*
#2810
b1110 I
1*
#2820
0*
0'
#2830
b1110 0
b1110 H
b1110 N
1*
#2840
0*
#2850
b1100 4
b1100 :
b1100 A
b1010 D
b11100 V
0&
1*
1'
#2860
0*
#2870
b101011111101101 #
b101011111101101 2
b101011111101101 >
1*
#2880
0*
0'
#2890
1*
#2900
0*
#2910
b1010 1
b1010 C
b1010 F
b1101 B
b11101 V
b101011111101101 +
1&
1*
1'
#2920
0*
#2930
b1010 I
1*
#2940
0*
0'
#2950
b1010 0
b1010 H
b1010 N
1*
#2960
0*
#2970
b1101 4
b1101 :
b1101 A
b1011 D
b11110 V
0&
1*
1'
#2980
0*
#2990
b1111011110001100 #
b1111011110001100 2
b1111011110001100 >
1*
#3000
0*
0'
#3010
1*
#3020
0*
b0 V
#3030
b1011 1
b1011 C
b1011 F
b1110 B
b1 V
b1111011110001100 +
1&
1*
1'
#3040
0*
#3050
b1011 I
1*
#3060
0*
0'
#3070
b1011 0
b1011 H
b1011 N
1*
#3080
0*
#3090
b1110 4
b1110 :
b1110 A
b1001 D
b10 V
0&
1*
1'
#3100
0*
#3110
b1110100111111001 #
b1110100111111001 2
b1110100111111001 >
1*
#3120
0*
0'
#3130
1*
#3140
0*
#3150
b1001 1
b1001 C
b1001 F
b1111 B
b11 V
b1110100111111001 +
1&
1*
1'
#3160
0*
#3170
b1001 I
1*
#3180
0*
0'
#3190
b1001 0
b1001 H
b1001 N
1*
#3200
0*
#3210
b1111 4
b1111 :
b1111 A
b1000 D
b100 V
0&
1*
1'
#3220
0*
#3230
b10010011000110 #
b10010011000110 2
b10010011000110 >
1*
#3240
0*
0'
#3250
1*
#3260
0*
#3270
b1000 1
b1000 C
b1000 F
b10000 B
b101 V
b10010011000110 +
1&
1*
1'
#3280
0*
#3290
b1000 I
1*
#3300
0*
0'
#3310
b1000 0
b1000 H
b1000 N
1*
#3320
0*
#3330
b10000 4
b10000 :
b10000 A
b11000 D
b110 V
0&
1*
1'
#3340
0*
#3350
b1000010011000101 #
b1000010011000101 2
b1000010011000101 >
1*
#3360
0*
0'
#3370
1*
#3380
0*
#3390
b11000 1
b11000 C
b11000 F
b10001 B
b111 V
b1000010011000101 +
1&
1*
1'
#3400
0*
#3410
b11000 I
1*
#3420
0*
0'
#3430
b11000 0
b11000 H
b11000 N
1*
#3440
0*
#3450
b10001 4
b10001 :
b10001 A
b11001 D
b1000 V
0&
1*
1'
#3460
0*
#3470
b1101001010101010 #
b1101001010101010 2
b1101001010101010 >
1*
#3480
0*
0'
#3490
1*
#3500
0*
#3510
b11001 1
b11001 C
b11001 F
b10010 B
b1001 V
b1101001010101010 +
1&
1*
1'
#3520
0*
#3530
b11001 I
1*
#3540
0*
0'
#3550
b11001 0
b11001 H
b11001 N
1*
#3560
0*
#3570
b10010 4
b10010 :
b10010 A
b11011 D
b1010 V
0&
1*
1'
#3580
0*
#3590
b1111011111100101 #
b1111011111100101 2
b1111011111100101 >
1*
#3600
0*
0'
#3610
1*
#3620
0*
#3630
b11011 1
b11011 C
b11011 F
b10011 B
b1011 V
b1111011111100101 +
1&
1*
1'
#3640
0*
#3650
b11011 I
1*
#3660
0*
0'
#3670
b11011 0
b11011 H
b11011 N
1*
#3680
0*
#3690
b10011 4
b10011 :
b10011 A
b11010 D
b1100 V
0&
1*
1'
#3700
0*
#3710
b111001001110111 #
b111001001110111 2
b111001001110111 >
1*
#3720
0*
0'
#3730
1*
#3740
0*
#3750
b11010 1
b11010 C
b11010 F
b10100 B
b1101 V
b111001001110111 +
1&
1*
1'
#3760
0*
#3770
b11010 I
1*
#3780
0*
0'
#3790
b11010 0
b11010 H
b11010 N
1*
#3800
0*
#3810
b10100 4
b10100 :
b10100 A
b11110 D
b1110 V
0&
1*
1'
#3820
0*
#3830
b1101011000010010 #
b1101011000010010 2
b1101011000010010 >
1*
#3840
0*
0'
#3850
1*
#3860
0*
#3870
b11110 1
b11110 C
b11110 F
b10101 B
b1111 V
b1101011000010010 +
1&
1*
1'
#3880
0*
#3890
b11110 I
1*
#3900
0*
0'
#3910
b11110 0
b11110 H
b11110 N
1*
#3920
0*
#3930
b10101 4
b10101 :
b10101 A
b11111 D
b10000 V
0&
1*
1'
#3940
0*
#3950
b1101101110001111 #
b1101101110001111 2
b1101101110001111 >
1*
#3960
0*
0'
#3970
1*
#3980
0*
#3990
b11111 1
b11111 C
b11111 F
b10110 B
b10001 V
b1101101110001111 +
1&
1*
1'
#4000
0*
#4010
b11111 I
1*
#4020
0*
0'
#4030
b11111 0
b11111 H
b11111 N
1*
#4040
0*
#4050
b10110 4
b10110 :
b10110 A
b11101 D
b10010 V
0&
1*
1'
#4060
0*
#4070
b110100111110010 #
b110100111110010 2
b110100111110010 >
1*
#4080
0*
0'
#4090
1*
#4100
0*
#4110
b11101 1
b11101 C
b11101 F
b10111 B
b10011 V
b110100111110010 +
1&
1*
1'
#4120
0*
#4130
b11101 I
1*
#4140
0*
0'
#4150
b11101 0
b11101 H
b11101 N
1*
#4160
0*
#4170
b10111 4
b10111 :
b10111 A
b11100 D
b10100 V
0&
1*
1'
#4180
0*
#4190
b1001011011001110 #
b1001011011001110 2
b1001011011001110 >
1*
#4200
0*
0'
#4210
1*
#4220
0*
#4230
b11100 1
b11100 C
b11100 F
b11000 B
b10101 V
b1001011011001110 +
1&
1*
1'
#4240
0*
#4250
b11100 I
1*
#4260
0*
0'
#4270
b11100 0
b11100 H
b11100 N
1*
#4280
0*
#4290
b11000 4
b11000 :
b11000 A
b10100 D
b10110 V
0&
1*
1'
#4300
0*
#4310
b111101011101000 #
b111101011101000 2
b111101011101000 >
1*
#4320
0*
0'
#4330
1*
#4340
0*
#4350
b10100 1
b10100 C
b10100 F
b11001 B
b10111 V
b111101011101000 +
1&
1*
1'
#4360
0*
#4370
b10100 I
1*
#4380
0*
0'
#4390
b10100 0
b10100 H
b10100 N
1*
#4400
0*
#4410
b11001 4
b11001 :
b11001 A
b10101 D
b11000 V
0&
1*
1'
#4420
0*
#4430
b100111011000101 #
b100111011000101 2
b100111011000101 >
1*
#4440
0*
0'
#4450
1*
#4460
0*
#4470
b10101 1
b10101 C
b10101 F
b11010 B
b11001 V
b100111011000101 +
1&
1*
1'
#4480
0*
#4490
b10101 I
1*
#4500
0*
0'
#4510
b10101 0
b10101 H
b10101 N
1*
#4520
0*
#4530
b11010 4
b11010 :
b11010 A
b10111 D
b11010 V
0&
1*
1'
#4540
0*
#4550
b100100101011100 #
b100100101011100 2
b100100101011100 >
1*
#4560
0*
0'
#4570
1*
#4580
0*
#4590
b10111 1
b10111 C
b10111 F
b11011 B
b11011 V
b100100101011100 +
1&
1*
1'
#4600
0*
#4610
b10111 I
1*
#4620
0*
0'
#4630
b10111 0
b10111 H
b10111 N
1*
#4640
0*
#4650
b11011 4
b11011 :
b11011 A
b10110 D
b11100 V
0&
1*
1'
#4660
0*
#4670
b10100010111101 #
b10100010111101 2
b10100010111101 >
1*
#4680
0*
0'
#4690
1*
#4700
0*
#4710
b10110 1
b10110 C
b10110 F
b11100 B
b11101 V
b10100010111101 +
1&
1*
1'
#4720
0*
#4730
b10110 I
1*
#4740
0*
0'
#4750
b10110 0
b10110 H
b10110 N
1*
#4760
0*
#4770
b11100 4
b11100 :
b11100 A
b10010 D
b11110 V
0&
1*
1'
#4780
0*
#4790
b101100000101101 #
b101100000101101 2
b101100000101101 >
1*
